4 Az adatkezelés és vizualizáció alapjai | Szövegbányászat és mesterséges intelligencia R-ben
…
Itt tehát a data frame azon sorait szeretnénk látni, ahol az ország megegyezik a „Sweden" karakterlánccal az év pedig nagyobb, mint 1990.

A select() parancs segítségével leválogathatunk oszlopokat a data frame-ből, a mutate() segítségével pedig új oszlopot adhatunk hozzá:

gapminder_df %>% 
    select(country, year, pop) %>% #leválogatjuk a country, year, pop oszlopokat
    mutate(pop_k = pop/1000) # létrehozzuk a pop_k oszlopot és meghatározzuk, hogy mit tartalmazzon

## # A tibble: 1,704 x 4
##    country      year      pop  pop_k
##    <fct>       <int>    <int>  <dbl>
##  1 Afghanistan  1952  8425333  8425.
##  2 Afghanistan  1957  9240934  9241.
##  3 Afghanistan  1962 10267083 10267.
##  4 Afghanistan  1967 11537966 11538.
##  5 Afghanistan  1972 13079460 13079.
##  6 Afghanistan  1977 14880372 14880.
##  7 Afghanistan  1982 12881816 12882.
##  8 Afghanistan  1987 13867957 13868.
##  9 Afghanistan  1992 16317921 16318.
## 10 Afghanistan  1997 22227415 22227.
## # ... with 1,694 more rows
…
